\relax 
\providecommand\hyper@newdestlabel[2]{}
\providecommand\HyperFirstAtBeginDocument{\AtBeginDocument}
\HyperFirstAtBeginDocument{\ifx\hyper@anchor\@undefined
\global\let\oldcontentsline\contentsline
\gdef\contentsline#1#2#3#4{\oldcontentsline{#1}{#2}{#3}}
\global\let\oldnewlabel\newlabel
\gdef\newlabel#1#2{\newlabelxx{#1}#2}
\gdef\newlabelxx#1#2#3#4#5#6{\oldnewlabel{#1}{{#2}{#3}}}
\AtEndDocument{\ifx\hyper@anchor\@undefined
\let\contentsline\oldcontentsline
\let\newlabel\oldnewlabel
\fi}
\fi}
\global\let\hyper@last\relax 
\gdef\HyperFirstAtBeginDocument#1{#1}
\providecommand\HyField@AuxAddToFields[1]{}
\providecommand\HyField@AuxAddToCoFields[2]{}
\providecommand\@newglossary[4]{}
\@newglossary{main}{glg}{gls}{glo}
\providecommand\@glsorder[1]{}
\providecommand\@istfilename[1]{}
\@istfilename{design.ist}
\@glsorder{word}
\select@language{english}
\@writefile{toc}{\select@language{english}}
\@writefile{lof}{\select@language{english}}
\@writefile{lot}{\select@language{english}}
\@input{sections/intro.aux}
\@writefile{toc}{\contentsline {section}{\numberline {3}System Design}{5}{section.3}}
\@writefile{toc}{\contentsline {subsection}{\numberline {3.1}Software Design}{5}{subsection.3.1}}
\newlabel{softwaredesign}{{3.1}{5}{Software Design}{subsection.3.1}{}}
\@writefile{loa}{\contentsline {algorithm}{\numberline {1}{\ignorespaces State Transition Discriminator\relax }}{5}{algorithm.1}}
\newlabel{algo}{{1}{5}{State Transition Discriminator\relax }{algorithm.1}{}}
