\relax 
\providecommand\hyper@newdestlabel[2]{}
\@writefile{toc}{\contentsline {section}{\numberline {1}Abstract}{3}{section.1}}
\@writefile{lof}{\contentsline {figure}{\numberline {1}{\ignorespaces Probe State Machine\relax }}{3}{figure.1}}
\providecommand*\caption@xref[2]{\@setref\relax\@undefined{#1}}
\newlabel{state}{{1}{3}{Probe State Machine\relax }{figure.1}{}}
\@writefile{toc}{\contentsline {section}{\numberline {2}Design considerations}{4}{section.2}}
\@writefile{toc}{\contentsline {paragraph}{Usability :}{4}{section*.4}}
\@writefile{toc}{\contentsline {paragraph}{Efficiency :}{4}{section*.5}}
\@writefile{toc}{\contentsline {paragraph}{Durability :}{4}{section*.6}}
\@writefile{toc}{\contentsline {paragraph}{Electromagnetic Compatibility :}{4}{section*.7}}
\@writefile{toc}{\contentsline {paragraph}{Size :}{4}{section*.8}}
\@writefile{toc}{\contentsline {paragraph}{Cost :}{4}{section*.9}}
\@setckpt{sections/intro}{
\setcounter{page}{5}
\setcounter{equation}{0}
\setcounter{enumi}{3}
\setcounter{enumii}{0}
\setcounter{enumiii}{0}
\setcounter{enumiv}{0}
\setcounter{footnote}{1}
\setcounter{mpfootnote}{0}
\setcounter{part}{0}
\setcounter{section}{2}
\setcounter{subsection}{0}
\setcounter{subsubsection}{0}
\setcounter{paragraph}{0}
\setcounter{subparagraph}{0}
\setcounter{figure}{1}
\setcounter{table}{0}
\setcounter{float@type}{8}
\setcounter{ContinuedFloat}{0}
\setcounter{subfigure}{0}
\setcounter{subtable}{0}
\setcounter{parentequation}{0}
\setcounter{su@anzahl}{0}
\setcounter{LT@tables}{0}
\setcounter{LT@chunks}{0}
\setcounter{Item}{5}
\setcounter{Hfootnote}{1}
\setcounter{bookmark@seq@number}{2}
\setcounter{r@tfl@t}{0}
\setcounter{nprt@mantissa@digitsbefore}{0}
\setcounter{nprt@mantissa@digitsafter}{0}
\setcounter{nprt@exponent@digitsbefore}{0}
\setcounter{nprt@exponent@digitsafter}{0}
\setcounter{nprt@digitsfirstblock}{0}
\setcounter{nprt@blockcnt}{0}
\setcounter{nprt@cntprint}{0}
\setcounter{ism@mctr}{0}
\setcounter{xsm@mctr}{0}
\setcounter{csm@mctr}{0}
\setcounter{ksm@mctr}{0}
\setcounter{xksm@mctr}{0}
\setcounter{cksm@mctr}{0}
\setcounter{msm@mctr}{0}
\setcounter{xmsm@mctr}{0}
\setcounter{cmsm@mctr}{0}
\setcounter{bsm@mctr}{0}
\setcounter{workm@mctr}{0}
\setcounter{algorithm}{0}
\setcounter{ALG@line}{0}
\setcounter{ALG@rem}{0}
\setcounter{ALG@nested}{0}
\setcounter{ALG@Lnr}{2}
\setcounter{ALG@blocknr}{10}
\setcounter{ALG@storecount}{0}
\setcounter{ALG@tmpcounter}{0}
\setcounter{section@level}{4}
}
